<svg width="20" height="21" viewBox="0 0 20 21" fill="none" xmlns="http://www.w3.org/2000/svg">
<path d="M14.9769 2.91303H18.8133C19.0676 2.91303 19.3116 3.01408 19.4914 3.19394C19.6713 3.3738 19.7723 3.61775 19.7723 3.87211V19.2174C19.7723 19.4717 19.6713 19.7157 19.4914 19.8956C19.3116 20.0754 19.0676 20.1765 18.8133 20.1765H1.54984C1.29547 20.1765 1.05153 20.0754 0.871667 19.8956C0.691805 19.7157 0.590759 19.4717 0.590759 19.2174V3.87211C0.590759 3.61775 0.691805 3.3738 0.871667 3.19394C1.05153 3.01408 1.29547 2.91303 1.54984 2.91303H5.38616V0.994873H7.30431V2.91303H13.0588V0.994873H14.9769V2.91303ZM17.8542 8.66751V4.83119H14.9769V6.74935H13.0588V4.83119H7.30431V6.74935H5.38616V4.83119H2.50892V8.66751H17.8542ZM17.8542 10.5857H2.50892V18.2583H17.8542V10.5857ZM4.42708 12.5038H9.22247V16.3401H4.42708V12.5038Z" fill="#09121F"/>
</svg>
